{
  "count": 30,
  "next": "https://swapi.co/api/vehicles/?page=3&search=a",
  "previous": "https://swapi.co/api/vehicles/?page=1&search=a",
  "results": [
    {
      "name": "Imperial Speeder Bike",
      "model": "74-Z speeder bike",
      "manufacturer": "Aratech Repulsor Company",
      "cost_in_credits": "8000",
      "length": "3",
      "max_atmosphering_speed": "360",
      "crew": "1",
      "passengers": "1",
      "cargo_capacity": "4",
      "consumables": "1 day",
      "vehicle_class": "speeder",
      "pilots": [
        "https://swapi.co/api/people/1/",
        "https://swapi.co/api/people/5/"
      ],
      "films": [
        "https://swapi.co/api/films/3/"
      ],
      "created": "2014-12-18T11:20:04.625000Z",
      "edited": "2014-12-22T18:21:15.920537Z",
      "url": "https://swapi.co/api/vehicles/30/"
    },
    {
      "name": "Vulture Droid",
      "model": "Vulture-class droid starfighter",
      "manufacturer": "Haor Chall Engineering, Baktoid Armor Workshop",
      "cost_in_credits": "unknown",
      "length": "3.5",
      "max_atmosphering_speed": "1200",
      "crew": "0",
      "passengers": "0",
      "cargo_capacity": "0",
      "consumables": "none",
      "vehicle_class": "starfighter",
      "pilots": [],
      "films": [
        "https://swapi.co/api/films/4/",
        "https://swapi.co/api/films/6/"
      ],
      "created": "2014-12-19T17:09:53.584000Z",
      "edited": "2014-12-22T18:21:15.953870Z",
      "url": "https://swapi.co/api/vehicles/33/"
    },
    {
      "name": "Multi-Troop Transport",
      "model": "Multi-Troop Transport",
      "manufacturer": "Baktoid Armor Workshop",
      "cost_in_credits": "138000",
      "length": "31",
      "max_atmosphering_speed": "35",
      "crew": "4",
      "passengers": "112",
      "cargo_capacity": "12000",
      "consumables": "unknown",
      "vehicle_class": "repulsorcraft",
      "pilots": [],
      "films": [
        "https://swapi.co/api/films/4/"
      ],
      "created": "2014-12-19T17:12:04.400000Z",
      "edited": "2014-12-22T18:21:15.975171Z",
      "url": "https://swapi.co/api/vehicles/34/"
    },
    {
      "name": "Armored Assault Tank",
      "model": "Armoured Assault Tank",
      "manufacturer": "Baktoid Armor Workshop",
      "cost_in_credits": "unknown",
      "length": "9.75",
      "max_atmosphering_speed": "55",
      "crew": "4",
      "passengers": "6",
      "cargo_capacity": "unknown",
      "consumables": "unknown",
      "vehicle_class": "repulsorcraft",
      "pilots": [],
      "films": [
        "https://swapi.co/api/films/4/"
      ],
      "created": "2014-12-19T17:13:29.799000Z",
      "edited": "2014-12-22T18:21:15.984817Z",
      "url": "https://swapi.co/api/vehicles/35/"
    },
    {
      "name": "Single Trooper Aerial Platform",
      "model": "Single Trooper Aerial Platform",
      "manufacturer": "Baktoid Armor Workshop",
      "cost_in_credits": "2500",
      "length": "2",
      "max_atmosphering_speed": "400",
      "crew": "1",
      "passengers": "0",
      "cargo_capacity": "none",
      "consumables": "none",
      "vehicle_class": "repulsorcraft",
      "pilots": [],
      "films": [
        "https://swapi.co/api/films/4/"
      ],
      "created": "2014-12-19T17:15:09.511000Z",
      "edited": "2014-12-22T18:21:16.008594Z",
      "url": "https://swapi.co/api/vehicles/36/"
    },
    {
      "name": "C-9979 landing craft",
      "model": "C-9979 landing craft",
      "manufacturer": "Haor Chall Engineering",
      "cost_in_credits": "200000",
      "length": "210",
      "max_atmosphering_speed": "587",
      "crew": "140",
      "passengers": "284",
      "cargo_capacity": "1800000",
      "consumables": "1 day",
      "vehicle_class": "landing craft",
      "pilots": [],
      "films": [
        "https://swapi.co/api/films/4/"
      ],
      "created": "2014-12-19T17:20:36.373000Z",
      "edited": "2014-12-22T18:21:16.033738Z",
      "url": "https://swapi.co/api/vehicles/37/"
    },
    {
      "name": "Koro-2 Exodrive airspeeder",
      "model": "Koro-2 Exodrive airspeeder",
      "manufacturer": "Desler Gizh Outworld Mobility Corporation",
      "cost_in_credits": "unknown",
      "length": "6.6",
      "max_atmosphering_speed": "800",
      "crew": "1",
      "passengers": "1",
      "cargo_capacity": "80",
      "consumables": "unknown",
      "vehicle_class": "airspeeder",
      "pilots": [
        "https://swapi.co/api/people/70/"
      ],
      "films": [
        "https://swapi.co/api/films/5/"
      ],
      "created": "2014-12-20T17:17:33.526000Z",
      "edited": "2014-12-22T18:21:16.140018Z",
      "url": "https://swapi.co/api/vehicles/45/"
    },
    {
      "name": "XJ-6 airspeeder",
      "model": "XJ-6 airspeeder",
      "manufacturer": "Narglatch AirTech prefabricated kit",
      "cost_in_credits": "unknown",
      "length": "6.23",
      "max_atmosphering_speed": "720",
      "crew": "1",
      "passengers": "1",
      "cargo_capacity": "unknown",
      "consumables": "unknown",
      "vehicle_class": "airspeeder",
      "pilots": [
        "https://swapi.co/api/people/11/"
      ],
      "films": [
        "https://swapi.co/api/films/5/"
      ],
      "created": "2014-12-20T17:19:19.991000Z",
      "edited": "2014-12-22T18:21:16.150194Z",
      "url": "https://swapi.co/api/vehicles/46/"
    },
    {
      "name": "LAAT/i",
      "model": "Low Altitude Assault Transport/infrantry",
      "manufacturer": "Rothana Heavy Engineering",
      "cost_in_credits": "unknown",
      "length": "17.4",
      "max_atmosphering_speed": "620",
      "crew": "6",
      "passengers": "30",
      "cargo_capacity": "170",
      "consumables": "unknown",
      "vehicle_class": "gunship",
      "pilots": [],
      "films": [
        "https://swapi.co/api/films/5/",
        "https://swapi.co/api/films/6/"
      ],
      "created": "2014-12-20T18:01:21.014000Z",
      "edited": "2014-12-22T18:21:16.181363Z",
      "url": "https://swapi.co/api/vehicles/50/"
    },
    {
      "name": "LAAT/c",
      "model": "Low Altitude Assault Transport/carrier",
      "manufacturer": "Rothana Heavy Engineering",
      "cost_in_credits": "unknown",
      "length": "28.82",
      "max_atmosphering_speed": "620",
      "crew": "1",
      "passengers": "0",
      "cargo_capacity": "40000",
      "consumables": "unknown",
      "vehicle_class": "gunship",
      "pilots": [],
      "films": [
        "https://swapi.co/api/films/5/"
      ],
      "created": "2014-12-20T18:02:46.802000Z",
      "edited": "2014-12-22T18:21:16.229733Z",
      "url": "https://swapi.co/api/vehicles/51/"
    }
  ]
}