{
  "count": 25,
  "next": "https://swapi.co/api/species/?page=3&search=a",
  "previous": "https://swapi.co/api/species/?page=1&search=a",
  "results": [
    {
      "name": "Zabrak",
      "classification": "mammal",
      "designation": "sentient",
      "average_height": "180",
      "skin_colors": "pale, brown, red, orange, yellow",
      "hair_colors": "black",
      "eye_colors": "brown, orange",
      "average_lifespan": "unknown",
      "homeworld": "https://swapi.co/api/planets/45/",
      "language": "Zabraki",
      "people": [
        "https://swapi.co/api/people/44/",
        "https://swapi.co/api/people/54/"
      ],
      "films": [
        "https://swapi.co/api/films/4/"
      ],
      "created": "2014-12-20T10:26:59.894000Z",
      "edited": "2014-12-20T21:36:42.183000Z",
      "url": "https://swapi.co/api/species/22/"
    },
    {
      "name": "Tholothian",
      "classification": "mammal",
      "designation": "sentient",
      "average_height": "unknown",
      "skin_colors": "dark",
      "hair_colors": "unknown",
      "eye_colors": "blue, indigo",
      "average_lifespan": "unknown",
      "homeworld": "https://swapi.co/api/planets/46/",
      "language": "unknown",
      "people": [
        "https://swapi.co/api/people/55/"
      ],
      "films": [
        "https://swapi.co/api/films/4/",
        "https://swapi.co/api/films/6/"
      ],
      "created": "2014-12-20T10:29:13.798000Z",
      "edited": "2014-12-20T21:36:42.186000Z",
      "url": "https://swapi.co/api/species/23/"
    },
    {
      "name": "Quermian",
      "classification": "mammal",
      "designation": "sentient",
      "average_height": "240",
      "skin_colors": "white",
      "hair_colors": "none",
      "eye_colors": "yellow",
      "average_lifespan": "86",
      "homeworld": "https://swapi.co/api/planets/48/",
      "language": "Quermian",
      "people": [
        "https://swapi.co/api/people/57/"
      ],
      "films": [
        "https://swapi.co/api/films/4/",
        "https://swapi.co/api/films/6/"
      ],
      "created": "2014-12-20T10:34:50.827000Z",
      "edited": "2014-12-20T21:36:42.189000Z",
      "url": "https://swapi.co/api/species/25/"
    },
    {
      "name": "Chagrian",
      "classification": "amphibian",
      "designation": "sentient",
      "average_height": "190",
      "skin_colors": "blue",
      "hair_colors": "none",
      "eye_colors": "blue",
      "average_lifespan": "unknown",
      "homeworld": "https://swapi.co/api/planets/50/",
      "language": "Chagria",
      "people": [
        "https://swapi.co/api/people/59/"
      ],
      "films": [
        "https://swapi.co/api/films/4/",
        "https://swapi.co/api/films/6/"
      ],
      "created": "2014-12-20T10:53:28.795000Z",
      "edited": "2014-12-20T21:36:42.193000Z",
      "url": "https://swapi.co/api/species/27/"
    },
    {
      "name": "Geonosian",
      "classification": "insectoid",
      "designation": "sentient",
      "average_height": "178",
      "skin_colors": "green, brown",
      "hair_colors": "none",
      "eye_colors": "green, hazel",
      "average_lifespan": "unknown",
      "homeworld": "https://swapi.co/api/planets/11/",
      "language": "Geonosian",
      "people": [
        "https://swapi.co/api/people/63/"
      ],
      "films": [
        "https://swapi.co/api/films/5/",
        "https://swapi.co/api/films/6/"
      ],
      "created": "2014-12-20T16:40:45.618000Z",
      "edited": "2014-12-20T21:36:42.195000Z",
      "url": "https://swapi.co/api/species/28/"
    },
    {
      "name": "Mirialan",
      "classification": "mammal",
      "designation": "sentient",
      "average_height": "180",
      "skin_colors": "yellow, green",
      "hair_colors": "black, brown",
      "eye_colors": "blue, green, red, yellow, brown, orange",
      "average_lifespan": "unknown",
      "homeworld": "https://swapi.co/api/planets/51/",
      "language": "Mirialan",
      "people": [
        "https://swapi.co/api/people/64/",
        "https://swapi.co/api/people/65/"
      ],
      "films": [
        "https://swapi.co/api/films/5/",
        "https://swapi.co/api/films/6/"
      ],
      "created": "2014-12-20T16:46:48.290000Z",
      "edited": "2014-12-20T21:36:42.197000Z",
      "url": "https://swapi.co/api/species/29/"
    },
    {
      "name": "Clawdite",
      "classification": "reptilian",
      "designation": "sentient",
      "average_height": "180",
      "skin_colors": "green, yellow",
      "hair_colors": "none",
      "eye_colors": "yellow",
      "average_lifespan": "70",
      "homeworld": "https://swapi.co/api/planets/54/",
      "language": "Clawdite",
      "people": [
        "https://swapi.co/api/people/70/"
      ],
      "films": [
        "https://swapi.co/api/films/5/",
        "https://swapi.co/api/films/6/"
      ],
      "created": "2014-12-20T16:57:46.171000Z",
      "edited": "2014-12-20T21:36:42.199000Z",
      "url": "https://swapi.co/api/species/30/"
    },
    {
      "name": "Besalisk",
      "classification": "amphibian",
      "designation": "sentient",
      "average_height": "178",
      "skin_colors": "brown",
      "hair_colors": "none",
      "eye_colors": "yellow",
      "average_lifespan": "75",
      "homeworld": "https://swapi.co/api/planets/55/",
      "language": "besalisk",
      "people": [
        "https://swapi.co/api/people/71/"
      ],
      "films": [
        "https://swapi.co/api/films/5/"
      ],
      "created": "2014-12-20T17:28:28.821000Z",
      "edited": "2014-12-20T21:36:42.200000Z",
      "url": "https://swapi.co/api/species/31/"
    },
    {
      "name": "Kaminoan",
      "classification": "amphibian",
      "designation": "sentient",
      "average_height": "220",
      "skin_colors": "grey, blue",
      "hair_colors": "none",
      "eye_colors": "black",
      "average_lifespan": "80",
      "homeworld": "https://swapi.co/api/planets/10/",
      "language": "Kaminoan",
      "people": [
        "https://swapi.co/api/people/72/",
        "https://swapi.co/api/people/73/"
      ],
      "films": [
        "https://swapi.co/api/films/5/"
      ],
      "created": "2014-12-20T17:31:24.838000Z",
      "edited": "2014-12-20T21:36:42.202000Z",
      "url": "https://swapi.co/api/species/32/"
    },
    {
      "name": "Skakoan",
      "classification": "mammal",
      "designation": "sentient",
      "average_height": "unknown",
      "skin_colors": "grey, green",
      "hair_colors": "none",
      "eye_colors": "unknown",
      "average_lifespan": "unknown",
      "homeworld": "https://swapi.co/api/planets/56/",
      "language": "Skakoan",
      "people": [
        "https://swapi.co/api/people/76/"
      ],
      "films": [
        "https://swapi.co/api/films/5/",
        "https://swapi.co/api/films/6/"
      ],
      "created": "2014-12-20T17:53:54.515000Z",
      "edited": "2014-12-20T21:36:42.204000Z",
      "url": "https://swapi.co/api/species/33/"
    }
  ]
}