{
  "count": 60,
  "next": "https://swapi.co/api/people/?page=3&search=a",
  "previous": "https://swapi.co/api/people/?page=1&search=a",
  "results": [
    {
      "name": "Han Solo",
      "height": "180",
      "mass": "80",
      "hair_color": "brown",
      "skin_color": "fair",
      "eye_color": "brown",
      "birth_year": "29BBY",
      "gender": "male",
      "homeworld": "https://swapi.co/api/planets/22/",
      "films": [
        "https://swapi.co/api/films/2/",
        "https://swapi.co/api/films/3/",
        "https://swapi.co/api/films/1/",
        "https://swapi.co/api/films/7/"
      ],
      "species": [
        "https://swapi.co/api/species/1/"
      ],
      "vehicles": [],
      "starships": [
        "https://swapi.co/api/starships/10/",
        "https://swapi.co/api/starships/22/"
      ],
      "created": "2014-12-10T16:49:14.582000Z",
      "edited": "2014-12-20T21:17:50.334000Z",
      "url": "https://swapi.co/api/people/14/"
    },
    {
      "name": "Jabba Desilijic Tiure",
      "height": "175",
      "mass": "1,358",
      "hair_color": "n/a",
      "skin_color": "green-tan, brown",
      "eye_color": "orange",
      "birth_year": "600BBY",
      "gender": "hermaphrodite",
      "homeworld": "https://swapi.co/api/planets/24/",
      "films": [
        "https://swapi.co/api/films/4/",
        "https://swapi.co/api/films/3/",
        "https://swapi.co/api/films/1/"
      ],
      "species": [
        "https://swapi.co/api/species/5/"
      ],
      "vehicles": [],
      "starships": [],
      "created": "2014-12-10T17:11:31.638000Z",
      "edited": "2014-12-20T21:17:50.338000Z",
      "url": "https://swapi.co/api/people/16/"
    },
    {
      "name": "Wedge Antilles",
      "height": "170",
      "mass": "77",
      "hair_color": "brown",
      "skin_color": "fair",
      "eye_color": "hazel",
      "birth_year": "21BBY",
      "gender": "male",
      "homeworld": "https://swapi.co/api/planets/22/",
      "films": [
        "https://swapi.co/api/films/2/",
        "https://swapi.co/api/films/3/",
        "https://swapi.co/api/films/1/"
      ],
      "species": [
        "https://swapi.co/api/species/1/"
      ],
      "vehicles": [
        "https://swapi.co/api/vehicles/14/"
      ],
      "starships": [
        "https://swapi.co/api/starships/12/"
      ],
      "created": "2014-12-12T11:08:06.469000Z",
      "edited": "2014-12-20T21:17:50.341000Z",
      "url": "https://swapi.co/api/people/18/"
    },
    {
      "name": "Yoda",
      "height": "66",
      "mass": "17",
      "hair_color": "white",
      "skin_color": "green",
      "eye_color": "brown",
      "birth_year": "896BBY",
      "gender": "male",
      "homeworld": "https://swapi.co/api/planets/28/",
      "films": [
        "https://swapi.co/api/films/2/",
        "https://swapi.co/api/films/5/",
        "https://swapi.co/api/films/4/",
        "https://swapi.co/api/films/6/",
        "https://swapi.co/api/films/3/"
      ],
      "species": [
        "https://swapi.co/api/species/6/"
      ],
      "vehicles": [],
      "starships": [],
      "created": "2014-12-15T12:26:01.042000Z",
      "edited": "2014-12-20T21:17:50.345000Z",
      "url": "https://swapi.co/api/people/20/"
    },
    {
      "name": "Palpatine",
      "height": "170",
      "mass": "75",
      "hair_color": "grey",
      "skin_color": "pale",
      "eye_color": "yellow",
      "birth_year": "82BBY",
      "gender": "male",
      "homeworld": "https://swapi.co/api/planets/8/",
      "films": [
        "https://swapi.co/api/films/2/",
        "https://swapi.co/api/films/5/",
        "https://swapi.co/api/films/4/",
        "https://swapi.co/api/films/6/",
        "https://swapi.co/api/films/3/"
      ],
      "species": [
        "https://swapi.co/api/species/1/"
      ],
      "vehicles": [],
      "starships": [],
      "created": "2014-12-15T12:48:05.971000Z",
      "edited": "2014-12-20T21:17:50.347000Z",
      "url": "https://swapi.co/api/people/21/"
    },
    {
      "name": "Boba Fett",
      "height": "183",
      "mass": "78.2",
      "hair_color": "black",
      "skin_color": "fair",
      "eye_color": "brown",
      "birth_year": "31.5BBY",
      "gender": "male",
      "homeworld": "https://swapi.co/api/planets/10/",
      "films": [
        "https://swapi.co/api/films/2/",
        "https://swapi.co/api/films/5/",
        "https://swapi.co/api/films/3/"
      ],
      "species": [
        "https://swapi.co/api/species/1/"
      ],
      "vehicles": [],
      "starships": [
        "https://swapi.co/api/starships/21/"
      ],
      "created": "2014-12-15T12:49:32.457000Z",
      "edited": "2014-12-20T21:17:50.349000Z",
      "url": "https://swapi.co/api/people/22/"
    },
    {
      "name": "Lando Calrissian",
      "height": "177",
      "mass": "79",
      "hair_color": "black",
      "skin_color": "dark",
      "eye_color": "brown",
      "birth_year": "31BBY",
      "gender": "male",
      "homeworld": "https://swapi.co/api/planets/30/",
      "films": [
        "https://swapi.co/api/films/2/",
        "https://swapi.co/api/films/3/"
      ],
      "species": [
        "https://swapi.co/api/species/1/"
      ],
      "vehicles": [],
      "starships": [
        "https://swapi.co/api/starships/10/"
      ],
      "created": "2014-12-15T12:56:32.683000Z",
      "edited": "2014-12-20T21:17:50.357000Z",
      "url": "https://swapi.co/api/people/25/"
    },
    {
      "name": "Ackbar",
      "height": "180",
      "mass": "83",
      "hair_color": "none",
      "skin_color": "brown mottle",
      "eye_color": "orange",
      "birth_year": "41BBY",
      "gender": "male",
      "homeworld": "https://swapi.co/api/planets/31/",
      "films": [
        "https://swapi.co/api/films/3/",
        "https://swapi.co/api/films/7/"
      ],
      "species": [
        "https://swapi.co/api/species/8/"
      ],
      "vehicles": [],
      "starships": [],
      "created": "2014-12-18T11:07:50.584000Z",
      "edited": "2014-12-20T21:17:50.362000Z",
      "url": "https://swapi.co/api/people/27/"
    },
    {
      "name": "Mon Mothma",
      "height": "150",
      "mass": "unknown",
      "hair_color": "auburn",
      "skin_color": "fair",
      "eye_color": "blue",
      "birth_year": "48BBY",
      "gender": "female",
      "homeworld": "https://swapi.co/api/planets/32/",
      "films": [
        "https://swapi.co/api/films/3/"
      ],
      "species": [
        "https://swapi.co/api/species/1/"
      ],
      "vehicles": [],
      "starships": [],
      "created": "2014-12-18T11:12:38.895000Z",
      "edited": "2014-12-20T21:17:50.364000Z",
      "url": "https://swapi.co/api/people/28/"
    },
    {
      "name": "Arvel Crynyd",
      "height": "unknown",
      "mass": "unknown",
      "hair_color": "brown",
      "skin_color": "fair",
      "eye_color": "brown",
      "birth_year": "unknown",
      "gender": "male",
      "homeworld": "https://swapi.co/api/planets/28/",
      "films": [
        "https://swapi.co/api/films/3/"
      ],
      "species": [
        "https://swapi.co/api/species/1/"
      ],
      "vehicles": [],
      "starships": [
        "https://swapi.co/api/starships/28/"
      ],
      "created": "2014-12-18T11:16:33.020000Z",
      "edited": "2014-12-20T21:17:50.367000Z",
      "url": "https://swapi.co/api/people/29/"
    }
  ]
}